{
    "uchars": [
        "numberOfInnermostPixelLayerHits",
        "numberOfNextToInnermostPixelLayerHits",
        "numberOfPixelHits",
        "numberOfSCTHits"
    ],
    "halves": [
        "chiSquared",
        "numberDoF",
        "radiusOfFirstHit"
    ],
    "customs": [
        "pt"
    ],
    "half_precision_customs": [
        "d0",
        "z0SinTheta",
        "d0Uncertainty",
        "z0SinThetaUncertainty",
        "IP3D_signed_d0",
        "IP3D_signed_z0",
        "IP3D_signed_d0_significance",
        "IP3D_signed_z0_significance",
        "deta",
        "dphi",
        "dr",
        "ptfrac",
        "z0RelativeToBeamspot",
        "z0RelativeToBeamspotUncertainty"
    ]
}
