mc16_13TeV:mc16_13TeV.361027.Pythia8EvtGen_A14NNPDF23LO_jetjet_JZ7W.deriv.DAOD_FTAG5.e3668_s3126_r9364_r9315_p3452
mc16_13TeV:mc16_13TeV.361028.Pythia8EvtGen_A14NNPDF23LO_jetjet_JZ8W.deriv.DAOD_FTAG5.e3569_s3126_r9364_r9315_p3452
mc16_13TeV:mc16_13TeV.361020.Pythia8EvtGen_A14NNPDF23LO_jetjet_JZ0W.deriv.DAOD_FTAG5.e3569_s3126_r9364_r9315_p3452
mc16_13TeV:mc16_13TeV.361032.Pythia8EvtGen_A14NNPDF23LO_jetjet_JZ12W.deriv.DAOD_FTAG5.e3668_s3126_s3136_r9364_r9315_p3452
mc16_13TeV:mc16_13TeV.361026.Pythia8EvtGen_A14NNPDF23LO_jetjet_JZ6W.deriv.DAOD_FTAG5.e3569_s3126_r9364_r9315_p3452
mc16_13TeV:mc16_13TeV.361029.Pythia8EvtGen_A14NNPDF23LO_jetjet_JZ9W.deriv.DAOD_FTAG5.e3569_s3126_r9364_r9315_p3452
mc16_13TeV:mc16_13TeV.361031.Pythia8EvtGen_A14NNPDF23LO_jetjet_JZ11W.deriv.DAOD_FTAG5.e3569_s3126_r9364_r9315_p3452
mc16_13TeV:mc16_13TeV.361025.Pythia8EvtGen_A14NNPDF23LO_jetjet_JZ5W.deriv.DAOD_FTAG5.e3668_s3126_r9364_r9315_p3452
mc16_13TeV:mc16_13TeV.361023.Pythia8EvtGen_A14NNPDF23LO_jetjet_JZ3W.deriv.DAOD_FTAG5.e3668_s3126_r9364_r9315_p3452
mc16_13TeV:mc16_13TeV.361024.Pythia8EvtGen_A14NNPDF23LO_jetjet_JZ4W.deriv.DAOD_FTAG5.e3668_s3126_r9364_r9315_p3452
mc16_13TeV:mc16_13TeV.361030.Pythia8EvtGen_A14NNPDF23LO_jetjet_JZ10W.deriv.DAOD_FTAG5.e3569_s3126_r9364_r9315_p3452
mc16_13TeV:mc16_13TeV.361021.Pythia8EvtGen_A14NNPDF23LO_jetjet_JZ1W.deriv.DAOD_FTAG5.e3569_s3126_r9364_r9315_p3452
mc16_13TeV:mc16_13TeV.361022.Pythia8EvtGen_A14NNPDF23LO_jetjet_JZ2W.deriv.DAOD_FTAG5.e3668_s3126_r9364_r9315_p3452
