{
    "jet_collection": "AntiKtVR30Rmax4Rmin02PV0TrackJets",
    "calibration": {},
    "selection": {
        "minimum_jet_constituents": 2,
        "minimum_jet_pt": 10000,
        "maximum_jet_absolute_eta": 2.5
    },
    "vertex_collection": "PrimaryVertices",
    "dl2_configs": [
        {
            "nn_file_path": "BTagging/201903/rnnip/antiktvr30rmax4rmin02track/network.json",
            "remapping": {
                "rnnip_pu": "rnnip_r21_vr_pu",
                "rnnip_pc": "rnnip_r21_vr_pc",
                "rnnip_pb": "rnnip_r21_vr_pb"
            }
        },
        {
            "nn_file_path": "BTagging/201903/dl1r/antiktvr30rmax4rmin02track/network.json",
            "remapping": {
                "DL1r_pu": "DL1r_r21_vr_pu",
                "DL1r_pc": "DL1r_r21_vr_pc",
                "DL1r_pb": "DL1r_r21_vr_pb",
                "maximumTrackRelativeEta": "JetFitterSecondaryVertex_maximumAllJetTrackRelativeEta",
                "minimumTrackRelativeEta": "JetFitterSecondaryVertex_minimumAllJetTrackRelativeEta",
                "averageTrackRelativeEta": "JetFitterSecondaryVertex_averageAllJetTrackRelativeEta"
            }
        },
        {
            "nn_file_path": "BTagging/201903/dl1r/antikt4empflow/network.json",
            "remapping": {
                "DL1r_pu": "DL1r_r21_pflow_pu",
                "DL1r_pc": "DL1r_r21_pflow_pc",
                "DL1r_pb": "DL1r_r21_pflow_pb",
                "maximumTrackRelativeEta": "JetFitterSecondaryVertex_maximumAllJetTrackRelativeEta",
                "minimumTrackRelativeEta": "JetFitterSecondaryVertex_minimumAllJetTrackRelativeEta",
                "averageTrackRelativeEta": "JetFitterSecondaryVertex_averageAllJetTrackRelativeEta"
            }
        },
        {
            "nn_file_path": "BTagging/201903/rnnip/antikt4empflow/network.json",
            "remapping": {
                "rnnip_pu": "rnnip_r21_pflow_pu",
                "rnnip_pc": "rnnip_r21_pflow_pc",
                "rnnip_pb": "rnnip_r21_pflow_pb"
            }
        },
        {
            "nn_file_path": "BTagging/20210729/dipsLoose/antikt4empflow/network.json",
            "remapping": {
                "dipsLoose20210729_pu": "dipsLoose20210729_pu",
                "dipsLoose20210729_pc": "dipsLoose20210729_pc",
                "dipsLoose20210729_pb": "dipsLoose20210729_pb"
            }
        },
        {
            "nn_file_path": "BTagging/20210729/dips/antikt4empflow/network.json",
            "remapping": {
                "dips20210729_pu": "dips20210729_pu",
                "dips20210729_pc": "dips20210729_pc",
                "dips20210729_pb": "dips20210729_pb"
            }
        },
        {
            "nn_file_path": "dev/BTagging/20211126r22/dipsLoose/antiktvr30rmax4rmin02track/network.json",
            "remapping": {
                "dipsLoose20210729_pu": "dipsLoose20210729_ptfrac_pu",
                "dipsLoose20210729_pc": "dipsLoose20210729_ptfrac_pc",
                "dipsLoose20210729_pb": "dipsLoose20210729_ptfrac_pb"
            }
        },
        {
            "nn_file_path": "dev/BTagging/20211126r22/dips/antiktvr30rmax4rmin02track/network.json",
            "remapping": {
                "dips20210729_pu": "dips20210729_ptfrac_pu",
                "dips20210729_pc": "dips20210729_ptfrac_pc",
                "dips20210729_pb": "dips20210729_ptfrac_pb"
            }
        },
        {
            "nn_file_path": "BTagging/20210824r22/dl1dLoose/antikt4empflow/network.json",
            "remapping": {
                "DL1dv00_pu": "DL1dv00_pu",
                "DL1dv00_pc": "DL1dv00_pc",
                "DL1dv00_pb": "DL1dv00_pb"
            }
        }
    ],
    "variables": {
        "btag": {
            "file": "fragments/single-btag-vr-variables.json",
            "floats": [
                "DL1r_r21_vr_pu",
                "DL1r_r21_vr_pc",
                "DL1r_r21_vr_pb",
                "rnnip_r21_vr_pu",
                "rnnip_r21_vr_pc",
                "rnnip_r21_vr_pb",
                "DL1r_r21_pflow_pu",
                "DL1r_r21_pflow_pc",
                "DL1r_r21_pflow_pb",
                "rnnip_r21_pflow_pu",
                "rnnip_r21_pflow_pc",
                "rnnip_r21_pflow_pb",
                "dipsLoose20210729_pu",
                "dipsLoose20210729_pc",
                "dipsLoose20210729_pb",
                "dips20210729_pu",
                "dips20210729_pc",
                "dips20210729_pb",
                "dipsLoose20210729_ptfrac_pu",
                "dipsLoose20210729_ptfrac_pc",
                "dipsLoose20210729_ptfrac_pb",
                "dips20210729_ptfrac_pu",
                "dips20210729_ptfrac_pc",
                "dips20210729_ptfrac_pb",
                "DL1dv00_pu",
                "DL1dv00_pc",
                "DL1dv00_pb"
            ]
        },
        "default_mapping": {
            "file": "fragments/default-mapping.json"
        }
    },
    "tracks": [
        {
            "n_to_save": 40,
            "selection": {
                "file": "fragments/ip3d-track-cuts.json"
            },
            "sort_order": "d0_significance",
            "btagging_link": "btaggingLink",
            "input_name": "BTagTrackToJetAssociator",
            "output_name": "tracks",
            "variables": {
                "file": "fragments/single-btag-track-variables.json"
            },
            "ip_prefix": "btagIp_"
        },
        {
            "n_to_save": 40,
            "selection": {
                "file": "fragments/ip3d-loose-track-cuts.json"
            },
            "sort_order": "d0_significance",
            "btagging_link": "btaggingLink",
            "input_name": "BTagTrackToJetAssociator",
            "output_name": "tracks_loose",
            "variables": {
                "file": "fragments/single-btag-track-variables.json"
            },
            "ip_prefix": "btagIp_"
        }
    ],
    "truths": [
        {
            "file": "fragments/overlap-leptons.json"
        }
    ],
    "decorate": {
        "jet_aug": false,
        "btag_jes": true,
        "soft_muon": false,
        "track_truth_info": false,
        "track_sv_info": false,
        "track_lepton_id": false,
        "do_vrtrackjets_fix": true
    },
    "btagging_link": "btaggingLink"
}
